build/cpu_test_bench.vcd
$date
	Mon Sep  1 20:12:14 2025
$end
$version
	Icarus Verilog
$end
$timescale
	1ps
$end
$scope module cpu_test_bench $end
$var wire 8 ! cpu_output [7:0] $end
$var parameter 32 " MAX_MACHINE_CODE_LENGTH $end
$var reg 1 # clock $end
$var reg 32 $ current_instruction [31:0] $end
$scope module main_cpu $end
$var wire 8 % alu_input2 [7:0] $end
$var wire 1 # clock_in $end
$var wire 32 & current_instruction [31:0] $end
$var wire 8 ' register_file_write_data [7:0] $end
$var wire 1 ( register_file_write_enable $end
$var wire 8 ) register_file_write_register_address [7:0] $end
$var wire 8 * register_file_read_register_address2 [7:0] $end
$var wire 8 + register_file_read_register_address1 [7:0] $end
$var wire 8 , register_file_read_data2 [7:0] $end
$var wire 8 - register_file_read_data1 [7:0] $end
$var wire 8 . alu_output [7:0] $end
$var wire 3 / alu_opcode [2:0] $end
$var wire 8 0 alu_input1 [7:0] $end
$var reg 8 1 cpu_output [7:0] $end
$scope module main_alu $end
$var wire 8 2 alu_input1 [7:0] $end
$var wire 8 3 alu_input2 [7:0] $end
$var wire 1 # clock_in $end
$var wire 1 4 enable_in $end
$var wire 3 5 opcode_in [2:0] $end
$var wire 1 6 reset_in $end
$var parameter 3 7 ADD $end
$var parameter 3 8 EQUALS $end
$var parameter 3 9 GREATER_THAN $end
$var parameter 3 : MULTIPLY $end
$var parameter 3 ; SUBTRACT $end
$var reg 8 < alu_output [7:0] $end
$upscope $end
$scope module main_register_file $end
$var wire 1 # clock_in $end
$var wire 8 = read_data1_out [7:0] $end
$var wire 8 > read_data2_out [7:0] $end
$var wire 8 ? read_register_address1_in [7:0] $end
$var wire 8 @ read_register_address2_in [7:0] $end
$var wire 8 A write_data_in [7:0] $end
$var wire 1 ( write_enable_in $end
$var wire 8 B write_register_address_in [7:0] $end
$var parameter 32 C NUMBER_OF_REGISTERS $end
$scope begin $ivl_for_loop1 $end
$var integer 32 D i [31:0] $end
$upscope $end
$upscope $end
$upscope $end
$scope begin $ivl_for_loop0 $end
$var integer 32 E i [31:0] $end
$upscope $end
$upscope $end
$enddefinitions $end
$comment Show the parameter values. $end
$dumpall
b100000000 C
b1 ;
b10 :
b100 9
b11 8
b0 7
b1000000 "
$end
#0
$dumpvars
b0 E
b100000000 D
b0 B
bx A
b10 @
b11 ?
b0 >
b0 =
bx <
06
b0 5
14
b0 3
b11 2
bx 1
b11 0
b0 /
bx .
b0 -
b0 ,
b11 +
b10 *
b0 )
1(
bx '
b110000001000000000 &
b0 %
b110000001000000000 $
0#
bx !
$end
#5000
b11 '
b11 A
b11 .
b11 <
1#
#10000
0#
#15000
1#
#20000
0#
#25000
1#
#30000
b1 )
b1 B
b11 %
b11 3
b11 ,
b11 >
b0 *
b0 @
b10 /
b10 5
0#
b1000000110000000000000010 $
b1000000110000000000000010 &
b1 E
#35000
b1001 '
b1001 A
b1001 .
b1001 <
1#
#40000
0#
#45000
1#
#50000
0#
#55000
1#
#60000
bx )
bx B
bx -
bx =
bx +
bx ?
bx %
bx 3
bx ,
bx >
bx *
bx @
bx /
bx 5
bx 0
bx 2
0#
bx $
bx &
b10 E
#65000
1#
#70000
0#
#75000
1#
#80000
0#
#85000
1#
#90000
0#
b11 E
#95000
1#
#100000
0#
#105000
1#
#110000
0#
#115000
1#
#120000
0#
b100 E
#125000
1#
#130000
0#
#135000
1#
#140000
0#
#145000
1#
#150000
0#
b101 E
#155000
1#
#160000
0#
#165000
1#
#170000
0#
#175000
1#
#180000
0#
b110 E
#185000
1#
#190000
0#
#195000
1#
#200000
0#
#205000
1#
#210000
0#
b111 E
#215000
1#
#220000
0#
#225000
1#
#230000
0#
#235000
1#
#240000
0#
b1000 E
#245000
1#
#250000
0#
#255000
1#
#260000
0#
#265000
1#
#270000
0#
b1001 E
#275000
1#
#280000
0#
#285000
1#
#290000
0#
#295000
1#
#300000
0#
b1010 E
#305000
1#
#310000
0#
#315000
1#
#320000
0#
#325000
1#
#330000
0#
b1011 E
#335000
1#
#340000
0#
#345000
1#
#350000
0#
#355000
1#
#360000
0#
b1100 E
#365000
1#
#370000
0#
#375000
1#
#380000
0#
#385000
1#
#390000
0#
b1101 E
#395000
1#
#400000
0#
#405000
1#
#410000
0#
#415000
1#
#420000
0#
b1110 E
#425000
1#
#430000
0#
#435000
1#
#440000
0#
#445000
1#
#450000
0#
b1111 E
#455000
1#
#460000
0#
#465000
1#
#470000
0#
#475000
1#
#480000
0#
b10000 E
#485000
1#
#490000
0#
#495000
1#
#500000
0#
#505000
1#
#510000
0#
b10001 E
#515000
1#
#520000
0#
#525000
1#
#530000
0#
#535000
1#
#540000
0#
b10010 E
#545000
1#
#550000
0#
#555000
1#
#560000
0#
#565000
1#
#570000
0#
b10011 E
#575000
1#
#580000
0#
#585000
1#
#590000
0#
#595000
1#
#600000
0#
b10100 E
#605000
1#
#610000
0#
#615000
1#
#620000
0#
#625000
1#
#630000
0#
b10101 E
#635000
1#
#640000
0#
#645000
1#
#650000
0#
#655000
1#
#660000
0#
b10110 E
#665000
1#
#670000
0#
#675000
1#
#680000
0#
#685000
1#
#690000
0#
b10111 E
#695000
1#
#700000
0#
#705000
1#
#710000
0#
#715000
1#
#720000
0#
b11000 E
#725000
1#
#730000
0#
#735000
1#
#740000
0#
#745000
1#
#750000
0#
b11001 E
#755000
1#
#760000
0#
#765000
1#
#770000
0#
#775000
1#
#780000
0#
b11010 E
#785000
1#
#790000
0#
#795000
1#
#800000
0#
#805000
1#
#810000
0#
b11011 E
#815000
1#
#820000
0#
#825000
1#
#830000
0#
#835000
1#
#840000
0#
b11100 E
#845000
1#
#850000
0#
#855000
1#
#860000
0#
#865000
1#
#870000
0#
b11101 E
#875000
1#
#880000
0#
#885000
1#
#890000
0#
#895000
1#
#900000
0#
b11110 E
#905000
1#
#910000
0#
#915000
1#
#920000
0#
#925000
1#
#930000
0#
b11111 E
#935000
1#
#940000
0#
#945000
1#
#950000
0#
#955000
1#
#960000
0#
b100000 E
#965000
1#
#970000
0#
#975000
1#
#980000
0#
#985000
1#
#990000
0#
b100001 E
#995000
1#
#1000000
0#
#1005000
1#
#1010000
0#
#1015000
1#
#1020000
0#
b100010 E
#1025000
1#
#1030000
0#
#1035000
1#
#1040000
0#
#1045000
1#
#1050000
0#
b100011 E
#1055000
1#
#1060000
0#
#1065000
1#
#1070000
0#
#1075000
1#
#1080000
0#
b100100 E
#1085000
1#
#1090000
0#
#1095000
1#
#1100000
0#
#1105000
1#
#1110000
0#
b100101 E
#1115000
1#
#1120000
0#
#1125000
1#
#1130000
0#
#1135000
1#
#1140000
0#
b100110 E
#1145000
1#
#1150000
0#
#1155000
1#
#1160000
0#
#1165000
1#
#1170000
0#
b100111 E
#1175000
1#
#1180000
0#
#1185000
1#
#1190000
0#
#1195000
1#
#1200000
0#
b101000 E
#1205000
1#
#1210000
0#
#1215000
1#
#1220000
0#
#1225000
1#
#1230000
0#
b101001 E
#1235000
1#
#1240000
0#
#1245000
1#
#1250000
0#
#1255000
1#
#1260000
0#
b101010 E
#1265000
1#
#1270000
0#
#1275000
1#
#1280000
0#
#1285000
1#
#1290000
0#
b101011 E
#1295000
1#
#1300000
0#
#1305000
1#
#1310000
0#
#1315000
1#
#1320000
0#
b101100 E
#1325000
1#
#1330000
0#
#1335000
1#
#1340000
0#
#1345000
1#
#1350000
0#
b101101 E
#1355000
1#
#1360000
0#
#1365000
1#
#1370000
0#
#1375000
1#
#1380000
0#
b101110 E
#1385000
1#
#1390000
0#
#1395000
1#
#1400000
0#
#1405000
1#
#1410000
0#
b101111 E
#1415000
1#
#1420000
0#
#1425000
1#
#1430000
0#
#1435000
1#
#1440000
0#
b110000 E
#1445000
1#
#1450000
0#
#1455000
1#
#1460000
0#
#1465000
1#
#1470000
0#
b110001 E
#1475000
1#
#1480000
0#
#1485000
1#
#1490000
0#
#1495000
1#
#1500000
0#
b110010 E
#1505000
1#
#1510000
0#
#1515000
1#
#1520000
0#
#1525000
1#
#1530000
0#
b110011 E
#1535000
1#
#1540000
0#
#1545000
1#
#1550000
0#
#1555000
1#
#1560000
0#
b110100 E
#1565000
1#
#1570000
0#
#1575000
1#
#1580000
0#
#1585000
1#
#1590000
0#
b110101 E
#1595000
1#
#1600000
0#
#1605000
1#
#1610000
0#
#1615000
1#
#1620000
0#
b110110 E
#1625000
1#
#1630000
0#
#1635000
1#
#1640000
0#
#1645000
1#
#1650000
0#
b110111 E
#1655000
1#
#1660000
0#
#1665000
1#
#1670000
0#
#1675000
1#
#1680000
0#
b111000 E
#1685000
1#
#1690000
0#
#1695000
1#
#1700000
0#
#1705000
1#
#1710000
0#
b111001 E
#1715000
1#
#1720000
0#
#1725000
1#
#1730000
0#
#1735000
1#
#1740000
0#
b111010 E
#1745000
1#
#1750000
0#
#1755000
1#
#1760000
0#
#1765000
1#
#1770000
0#
b111011 E
#1775000
1#
#1780000
0#
#1785000
1#
#1790000
0#
#1795000
1#
#1800000
0#
b111100 E
#1805000
1#
#1810000
0#
#1815000
1#
#1820000
0#
#1825000
1#
#1830000
0#
b111101 E
#1835000
1#
#1840000
0#
#1845000
1#
#1850000
0#
#1855000
1#
#1860000
0#
b111110 E
#1865000
1#
#1870000
0#
#1875000
1#
#1880000
0#
#1885000
1#
#1890000
0#
b111111 E
#1895000
1#
#1900000
0#
#1905000
1#
#1910000
0#
#1915000
1#
#1920000
0#
b1000000 E
